<svg width="290" height="49" viewBox="0 0 290 49" fill="none" xmlns="http://www.w3.org/2000/svg">
<path d="M62.1445 13.0146H69.9204C73.4637 13.0146 76.0329 13.5216 77.6279 14.5356C79.2344 15.5382 80.0376 17.139 80.0376 19.3379C80.0376 20.8304 79.6844 22.0552 78.978 23.0122C78.283 23.9692 77.3545 24.5446 76.1924 24.7383V24.9092C77.776 25.2624 78.9154 25.9232 79.6104 26.8916C80.3167 27.86 80.6699 29.1475 80.6699 30.7539C80.6699 33.0326 79.8439 34.8099 78.1919 36.0859C76.5513 37.362 74.3182 38 71.4927 38H62.1445V13.0146ZM67.4424 22.9097H70.5186C71.9541 22.9097 72.9909 22.6875 73.6289 22.2432C74.2783 21.7988 74.603 21.064 74.603 20.0386C74.603 19.0815 74.2498 18.3979 73.5435 17.9878C72.8485 17.5662 71.7433 17.3555 70.228 17.3555H67.4424V22.9097ZM67.4424 27.1138V33.625H70.8945C72.3529 33.625 73.4295 33.3459 74.1245 32.7876C74.8195 32.2293 75.167 31.3748 75.167 30.2241C75.167 28.1506 73.6859 27.1138 70.7236 27.1138H67.4424ZM95.9141 18.5347C96.6204 18.5347 97.2072 18.5859 97.6743 18.6885L97.2812 23.5762C96.8597 23.4622 96.347 23.4053 95.7432 23.4053C94.0798 23.4053 92.7809 23.8325 91.8467 24.687C90.9238 25.5415 90.4624 26.7378 90.4624 28.2759V38H85.25V18.8936H89.1978L89.9668 22.1064H90.2231C90.8156 21.0355 91.6131 20.1753 92.6157 19.5259C93.6297 18.8651 94.7292 18.5347 95.9141 18.5347ZM100.921 13.9546C100.921 12.257 101.867 11.4082 103.758 11.4082C105.65 11.4082 106.595 12.257 106.595 13.9546C106.595 14.7635 106.356 15.3958 105.877 15.8516C105.41 16.2959 104.704 16.5181 103.758 16.5181C101.867 16.5181 100.921 15.6636 100.921 13.9546ZM106.356 38H101.144V18.8936H106.356V38ZM128.47 18.8936V21.5425L125.479 22.3115C126.026 23.166 126.3 24.123 126.3 25.1826C126.3 27.2334 125.582 28.8341 124.146 29.9849C122.722 31.1242 120.74 31.6938 118.199 31.6938L117.259 31.6426L116.49 31.5571C115.955 31.9673 115.687 32.423 115.687 32.9243C115.687 33.6763 116.644 34.0522 118.558 34.0522H121.805C123.902 34.0522 125.497 34.5023 126.59 35.4023C127.695 36.3024 128.248 37.624 128.248 39.3672C128.248 41.6003 127.314 43.332 125.445 44.5625C123.588 45.793 120.917 46.4082 117.43 46.4082C114.764 46.4082 112.725 45.9411 111.312 45.0068C109.911 44.084 109.21 42.7852 109.21 41.1104C109.21 39.9596 109.569 38.9969 110.287 38.2222C111.004 37.4474 112.058 36.8949 113.448 36.5645C112.913 36.3366 112.446 35.9663 112.047 35.4536C111.648 34.9295 111.449 34.377 111.449 33.7959C111.449 33.0667 111.66 32.4629 112.081 31.9844C112.503 31.4945 113.112 31.016 113.91 30.5488C112.907 30.1159 112.11 29.4209 111.517 28.4639C110.936 27.5068 110.646 26.3789 110.646 25.0801C110.646 22.9951 111.323 21.383 112.679 20.2437C114.035 19.1043 115.972 18.5347 118.49 18.5347C119.025 18.5347 119.658 18.5859 120.387 18.6885C121.127 18.7796 121.6 18.848 121.805 18.8936H128.47ZM113.722 40.7002C113.722 41.418 114.063 41.9819 114.747 42.3921C115.442 42.8022 116.41 43.0073 117.652 43.0073C119.521 43.0073 120.985 42.751 122.044 42.2383C123.104 41.7256 123.634 41.0249 123.634 40.1362C123.634 39.4185 123.32 38.9229 122.694 38.6494C122.067 38.376 121.099 38.2393 119.789 38.2393H117.088C116.131 38.2393 115.328 38.4614 114.679 38.9058C114.041 39.3615 113.722 39.9596 113.722 40.7002ZM115.619 25.1484C115.619 26.1852 115.852 27.0055 116.319 27.6094C116.798 28.2132 117.521 28.5151 118.49 28.5151C119.47 28.5151 120.187 28.2132 120.643 27.6094C121.099 27.0055 121.327 26.1852 121.327 25.1484C121.327 22.847 120.381 21.6963 118.49 21.6963C116.576 21.6963 115.619 22.847 115.619 25.1484ZM149.269 38H144.056V26.8403C144.056 24.0832 143.031 22.7046 140.98 22.7046C139.522 22.7046 138.468 23.2002 137.818 24.1914C137.169 25.1826 136.844 26.7891 136.844 29.0107V38H131.632V11.4082H136.844V16.8257C136.844 17.2472 136.804 18.2384 136.725 19.7993L136.605 21.3374H136.878C138.041 19.4689 139.886 18.5347 142.416 18.5347C144.66 18.5347 146.363 19.1385 147.525 20.3462C148.688 21.5539 149.269 23.2856 149.269 25.5415V38ZM162.684 34.189C163.596 34.189 164.689 33.9896 165.965 33.5908V37.4702C164.667 38.0513 163.071 38.3418 161.18 38.3418C159.095 38.3418 157.574 37.8177 156.617 36.7695C155.672 35.71 155.199 34.1263 155.199 32.0186V22.8071H152.704V20.6025L155.575 18.8594L157.079 14.8262H160.411V18.8936H165.76V22.8071H160.411V32.0186C160.411 32.7591 160.616 33.306 161.026 33.6592C161.448 34.0124 162 34.189 162.684 34.189ZM194.095 31.0615C194.095 33.3174 193.281 35.0947 191.651 36.3936C190.034 37.6924 187.778 38.3418 184.884 38.3418C182.218 38.3418 179.859 37.8405 177.809 36.8379V31.916C179.495 32.668 180.919 33.1978 182.081 33.5054C183.255 33.813 184.326 33.9668 185.294 33.9668C186.456 33.9668 187.345 33.7446 187.96 33.3003C188.587 32.856 188.9 32.1951 188.9 31.3179C188.9 30.828 188.763 30.395 188.49 30.019C188.216 29.6317 187.812 29.2614 187.276 28.9082C186.752 28.555 185.676 27.991 184.046 27.2163C182.52 26.4985 181.375 25.8092 180.611 25.1484C179.848 24.4876 179.238 23.7186 178.783 22.8413C178.327 21.964 178.099 20.9386 178.099 19.7651C178.099 17.5549 178.845 15.8174 180.338 14.5527C181.842 13.2881 183.915 12.6558 186.559 12.6558C187.857 12.6558 189.094 12.8096 190.267 13.1172C191.452 13.4248 192.688 13.8577 193.976 14.416L192.267 18.5347C190.934 17.9878 189.828 17.6061 188.951 17.3896C188.085 17.1732 187.231 17.0649 186.388 17.0649C185.385 17.0649 184.616 17.2985 184.081 17.7656C183.545 18.2327 183.277 18.8423 183.277 19.5942C183.277 20.0614 183.386 20.4715 183.602 20.8247C183.819 21.1665 184.16 21.5026 184.627 21.833C185.106 22.152 186.228 22.7331 187.994 23.5762C190.33 24.6927 191.931 25.8149 192.796 26.9429C193.662 28.0594 194.095 29.4323 194.095 31.0615ZM215.321 38H210.108V26.8403C210.108 25.4618 209.875 24.4307 209.408 23.7471C208.952 23.0521 208.229 22.7046 207.237 22.7046C205.904 22.7046 204.936 23.1945 204.332 24.1743C203.728 25.1541 203.426 26.7663 203.426 29.0107V38H198.214V18.8936H202.196L202.896 21.3374H203.187C203.7 20.4601 204.44 19.7765 205.409 19.2866C206.377 18.7853 207.488 18.5347 208.741 18.5347C211.601 18.5347 213.538 19.4689 214.552 21.3374H215.013C215.526 20.4487 216.278 19.7594 217.269 19.2695C218.272 18.7796 219.4 18.5347 220.653 18.5347C222.818 18.5347 224.452 19.0929 225.558 20.2095C226.674 21.3146 227.232 23.092 227.232 25.5415V38H222.003V26.8403C222.003 25.4618 221.769 24.4307 221.302 23.7471C220.847 23.0521 220.123 22.7046 219.132 22.7046C217.856 22.7046 216.899 23.1603 216.261 24.0718C215.634 24.9832 215.321 26.4302 215.321 28.4126V38ZM232.376 13.9546C232.376 12.257 233.322 11.4082 235.213 11.4082C237.105 11.4082 238.05 12.257 238.05 13.9546C238.05 14.7635 237.811 15.3958 237.333 15.8516C236.865 16.2959 236.159 16.5181 235.213 16.5181C233.322 16.5181 232.376 15.6636 232.376 13.9546ZM237.811 38H232.599V18.8936H237.811V38ZM248.509 38H243.297V11.4082H248.509V38ZM261.908 22.2432C260.803 22.2432 259.937 22.5964 259.31 23.3027C258.683 23.9977 258.325 24.9889 258.233 26.2764H265.548C265.525 24.9889 265.189 23.9977 264.54 23.3027C263.89 22.5964 263.013 22.2432 261.908 22.2432ZM262.643 38.3418C259.566 38.3418 257.162 37.493 255.431 35.7954C253.699 34.0978 252.833 31.6938 252.833 28.5835C252.833 25.382 253.631 22.9097 255.226 21.1665C256.832 19.4119 259.048 18.5347 261.874 18.5347C264.574 18.5347 266.676 19.3037 268.18 20.8418C269.684 22.3799 270.436 24.5047 270.436 27.2163V29.7456H258.114C258.171 31.2267 258.609 32.3831 259.43 33.2148C260.25 34.0465 261.401 34.4624 262.882 34.4624C264.033 34.4624 265.121 34.3428 266.146 34.1035C267.171 33.8643 268.242 33.4826 269.359 32.9585V36.9917C268.447 37.4474 267.473 37.7835 266.437 38C265.4 38.2279 264.135 38.3418 262.643 38.3418ZM288.004 32.3262C288.004 34.2858 287.32 35.7783 285.953 36.8037C284.597 37.8291 282.564 38.3418 279.852 38.3418C278.462 38.3418 277.277 38.245 276.297 38.0513C275.318 37.869 274.4 37.5955 273.546 37.231V32.9243C274.514 33.38 275.602 33.7617 276.81 34.0693C278.029 34.377 279.1 34.5308 280.023 34.5308C281.914 34.5308 282.86 33.9839 282.86 32.8901C282.86 32.48 282.735 32.1496 282.484 31.8989C282.233 31.6369 281.8 31.3464 281.185 31.0273C280.57 30.6969 279.75 30.3153 278.724 29.8823C277.254 29.2671 276.172 28.6974 275.477 28.1733C274.793 27.6493 274.292 27.0511 273.973 26.3789C273.666 25.6953 273.512 24.8579 273.512 23.8667C273.512 22.1691 274.167 20.8589 275.477 19.936C276.799 19.0018 278.667 18.5347 281.083 18.5347C283.384 18.5347 285.623 19.036 287.799 20.0386L286.227 23.7983C285.27 23.3882 284.375 23.0521 283.543 22.79C282.712 22.528 281.863 22.397 280.997 22.397C279.459 22.397 278.69 22.8128 278.69 23.6445C278.69 24.1117 278.935 24.5161 279.425 24.8579C279.926 25.1997 281.014 25.7067 282.689 26.3789C284.181 26.9827 285.275 27.5467 285.97 28.0708C286.665 28.5949 287.178 29.1987 287.508 29.8823C287.839 30.5659 288.004 31.3805 288.004 32.3262Z" fill="#003781"/>
<path d="M5.96696 28.0377C12.9076 27.9586 25.359 23.7698 41.9921 15.3635H41.9993C44.8301 13.9265 47.7975 12.3746 50.8654 10.6933L42.0065 14.4223L41.9993 14.0989C41.9418 13.129 41.8412 12.1303 41.6759 11.1172C41.0652 8.24325 39.6929 6.2674 35.5975 6.58353C31.2003 6.92122 29.4544 9.29943 22.5497 9.61556C23.1604 10.3269 24.231 10.6286 25.2512 10.952C26.2643 11.2896 27.4139 11.6202 28.4485 11.7782L26.5158 11.5914C20.229 10.6358 11.4562 5.56328 7.49735 6.0303C4.17792 6.41828 2.52539 9.57245 2.37451 13.3445C2.25237 16.5274 3.2367 20.7737 4.63775 25.0631C1.41892 24.4883 0.0681548 22.6202 1.48358 19.0637C-1.52689 24.8907 0.132819 27.9012 5.65801 28.0377V28.0448C5.73705 28.0448 5.81608 28.0448 5.9023 28.0377L5.92385 28.0448L5.96696 28.0377ZM16.8449 14.2642L11.4131 14.8677L13.1878 17.404L10.6515 15.6293L10.048 21.0611L9.44446 15.6293L6.90819 17.404L8.68286 14.8677L3.26544 14.2642L8.69723 13.6607L6.91537 11.1244L9.45164 12.8991L10.0552 7.46728L10.6587 12.8991L13.195 11.1244L11.4203 13.6607L16.8449 14.2642Z" fill="#003781"/>
<path d="M41.7981 18.5104C29.5478 24.6463 19.7332 28.4687 12.3328 29.9703H12.3256C10.4072 30.3799 8.48887 30.6673 6.67109 30.7391C6.30466 30.7535 5.94541 30.7607 5.58617 30.7607C4.17792 30.7463 2.7122 30.581 1.383 30.0925C2.53258 31.7019 4.62339 32.5282 7.43269 32.6503H7.45424C8.62538 35.438 10.0121 38.585 11.6143 42.0913C13.4033 45.2023 15.7815 48.2847 18.44 48.6439C19.2016 48.6726 19.2016 48.6726 19.6327 48.0835C20.5811 46.5387 21.1128 44.0384 21.7809 42.0194C22.4491 40.0148 23.1533 38.5994 23.8933 37.0403C24.2741 36.2859 24.6405 35.6249 24.9854 35.0644C26.3003 33.4406 28.5132 29.8985 32.0482 28.5118C29.0952 30.9475 25.7758 43.4277 28.0821 43.83C29.3323 44.0527 34.5054 38.4557 37.7889 32.0899C40.5407 26.7443 41.5754 20.4575 41.5754 20.4575L41.6759 19.8971L47.6969 15.4712L47.6538 15.4927C45.6564 16.5561 43.6949 17.562 41.7981 18.5104Z" fill="#89B91E"/>
</svg>
