<svg width="19" height="19" viewBox="0 0 19 19" fill="none" xmlns="http://www.w3.org/2000/svg">
<circle cx="9.5" cy="9.5" r="9" stroke="white"/>
<circle cx="9.49988" cy="7.61268" r="3.61268" fill="white"/>
<path d="M15.1786 16.5912C14.352 14.2526 12.1217 12.5771 9.50005 12.5771C6.87841 12.5771 4.64811 14.2526 3.82153 16.5912C8.48436 20.2307 13.3357 18.1077 15.1786 16.5912Z" fill="white"/>
</svg>
