<svg width="66" height="66" viewBox="0 0 66 66" fill="none" xmlns="http://www.w3.org/2000/svg">
<circle cx="33" cy="32.9994" r="32.1927" fill="#003781" fill-opacity="0.08"/>
<path d="M33.1287 48.1945C23.7815 44.0509 21.2761 39.7146 21.2761 36.1492C21.2761 32.5838 21.2761 22.9476 21.2761 22.9476C21.2761 22.9476 22.2397 22.9476 24.5524 22.9476C26.8651 22.9476 30.4305 23.2366 30.4305 19.4785H33.1287H35.8268C35.8268 23.2366 39.3922 22.9476 41.7049 22.9476C44.0176 22.9476 44.9812 22.9476 44.9812 22.9476C44.9812 22.9476 44.9812 32.5838 44.9812 36.1492C44.9812 39.7146 42.4758 44.0509 33.1287 48.1945Z" stroke="#003781" stroke-width="1.5" stroke-linecap="round" stroke-linejoin="round"/>
<path d="M34.8632 26.3203V32.1984H40.5486V35.1856H34.8632V41.1601H31.7796V35.1856H26.0943V32.1984H31.7796V26.3203H34.8632Z" stroke="#003781" stroke-width="1.5" stroke-linecap="round" stroke-linejoin="round"/>
</svg>
